Copyright 1986-2017 Xilinx, Inc. All Rights Reserved.
----------------------------------------------------------------------------------------------------------------------------------------------------------------------
| Tool Version     : Vivado v.2017.4 (win64) Build 2086221 Fri Dec 15 20:55:39 MST 2017
| Date             : Thu May 10 22:02:04 2018
| Host             : DESKTOP-QVPG904 running 64-bit major release  (build 9200)
| Command          : report_power -file design_1_wrapper_power_routed.rpt -pb design_1_wrapper_power_summary_routed.pb -rpx design_1_wrapper_power_routed.rpx
| Design           : design_1_wrapper
| Device           : xc7z020clg484-1
| Design State     : routed
| Grade            : commercial
| Process          : typical
| Characterization : Production
----------------------------------------------------------------------------------------------------------------------------------------------------------------------

Power Report

Table of Contents
-----------------
1. Summary
1.1 On-Chip Components
1.2 Power Supply Summary
1.3 Confidence Level
2. Settings
2.1 Environment
2.2 Clock Constraints
3. Detailed Reports
3.1 By Hierarchy

1. Summary
----------

+--------------------------+--------------+
| Total On-Chip Power (W)  | 1.845        |
| Design Power Budget (W)  | Unspecified* |
| Power Budget Margin (W)  | NA           |
| Dynamic (W)              | 1.696        |
| Device Static (W)        | 0.149        |
| Effective TJA (C/W)      | 11.5         |
| Max Ambient (C)          | 63.7         |
| Junction Temperature (C) | 46.3         |
| Confidence Level         | Low          |
| Setting File             | ---          |
| Simulation Activity File | ---          |
| Design Nets Matched      | NA           |
+--------------------------+--------------+
* Specify Design Power Budget using, set_operating_conditions -design_power_budget <value in Watts>


1.1 On-Chip Components
----------------------

+-------------------------+-----------+----------+-----------+-----------------+
| On-Chip                 | Power (W) | Used     | Available | Utilization (%) |
+-------------------------+-----------+----------+-----------+-----------------+
| Clocks                  |     0.022 |        7 |       --- |             --- |
| Slice Logic             |     0.005 |    26301 |       --- |             --- |
|   LUT as Logic          |     0.004 |     6895 |     53200 |           12.96 |
|   CARRY4                |    <0.001 |      559 |     13300 |            4.20 |
|   Register              |    <0.001 |    15717 |    106400 |           14.77 |
|   F7/F8 Muxes           |    <0.001 |     2291 |     53200 |            4.31 |
|   Others                |     0.000 |      241 |       --- |             --- |
|   LUT as Shift Register |     0.000 |        1 |     17400 |           <0.01 |
| Signals                 |     0.011 |    20514 |       --- |             --- |
| Block RAM               |     0.009 |        4 |       140 |            2.86 |
| MMCM                    |     0.116 |        1 |         4 |           25.00 |
| I/O                     |     0.004 |       24 |       200 |           12.00 |
| PS7                     |     1.529 |        1 |       --- |             --- |
| Static Power            |     0.149 |          |           |                 |
| Total                   |     1.845 |          |           |                 |
+-------------------------+-----------+----------+-----------+-----------------+


1.2 Power Supply Summary
------------------------

+-----------+-------------+-----------+-------------+------------+
| Source    | Voltage (V) | Total (A) | Dynamic (A) | Static (A) |
+-----------+-------------+-----------+-------------+------------+
| Vccint    |       1.000 |     0.062 |       0.046 |      0.016 |
| Vccaux    |       1.800 |     0.080 |       0.064 |      0.016 |
| Vcco33    |       3.300 |     0.002 |       0.001 |      0.001 |
| Vcco25    |       2.500 |     0.000 |       0.000 |      0.000 |
| Vcco18    |       1.800 |     0.000 |       0.000 |      0.000 |
| Vcco15    |       1.500 |     0.000 |       0.000 |      0.000 |
| Vcco135   |       1.350 |     0.000 |       0.000 |      0.000 |
| Vcco12    |       1.200 |     0.000 |       0.000 |      0.000 |
| Vccaux_io |       1.800 |     0.000 |       0.000 |      0.000 |
| Vccbram   |       1.000 |     0.002 |       0.001 |      0.001 |
| MGTAVcc   |       1.000 |     0.000 |       0.000 |      0.000 |
| MGTAVtt   |       1.200 |     0.000 |       0.000 |      0.000 |
| MGTVccaux |       1.800 |     0.000 |       0.000 |      0.000 |
| Vccpint   |       1.000 |     0.750 |       0.718 |      0.032 |
| Vccpaux   |       1.800 |     0.061 |       0.051 |      0.010 |
| Vccpll    |       1.800 |     0.017 |       0.014 |      0.003 |
| Vcco_ddr  |       1.500 |     0.459 |       0.457 |      0.002 |
| Vcco_mio0 |       3.300 |     0.003 |       0.002 |      0.001 |
| Vcco_mio1 |       1.800 |     0.003 |       0.002 |      0.001 |
| Vccadc    |       1.800 |     0.020 |       0.000 |      0.020 |
+-----------+-------------+-----------+-------------+------------+


1.3 Confidence Level
--------------------

+-----------------------------+------------+--------------------------------------------------------+------------------------------------------------------------------------------------------------------------+
| User Input Data             | Confidence | Details                                                | Action                                                                                                     |
+-----------------------------+------------+--------------------------------------------------------+------------------------------------------------------------------------------------------------------------+
| Design implementation state | High       | Design is routed                                       |                                                                                                            |
| Clock nodes activity        | High       | User specified more than 95% of clocks                 |                                                                                                            |
| I/O nodes activity          | Low        | More than 75% of inputs are missing user specification | Provide missing input activity with simulation results or by editing the "By Resource Type -> I/Os" view   |
| Internal nodes activity     | Medium     | User specified less than 25% of internal nodes         | Provide missing internal nodes activity with simulation results or by editing the "By Resource Type" views |
| Device models               | High       | Device models are Production                           |                                                                                                            |
|                             |            |                                                        |                                                                                                            |
| Overall confidence level    | Low        |                                                        |                                                                                                            |
+-----------------------------+------------+--------------------------------------------------------+------------------------------------------------------------------------------------------------------------+


2. Settings
-----------

2.1 Environment
---------------

+-----------------------+------------------------+
| Ambient Temp (C)      | 25.0                   |
| ThetaJA (C/W)         | 11.5                   |
| Airflow (LFM)         | 250                    |
| Heat Sink             | none                   |
| ThetaSA (C/W)         | 0.0                    |
| Board Selection       | medium (10"x10")       |
| # of Board Layers     | 8to11 (8 to 11 Layers) |
| Board Temperature (C) | 25.0                   |
+-----------------------+------------------------+


2.2 Clock Constraints
---------------------

+-------------------------------+-------------------------------------------------------------+-----------------+
| Clock                         | Domain                                                      | Constraint (ns) |
+-------------------------------+-------------------------------------------------------------+-----------------+
| clk_fpga_0                    | design_1_i/processing_system7_0/inst/FCLK_CLK_unbuffered[0] |            20.0 |
| clk_fpga_1                    | design_1_i/processing_system7_0/inst/FCLK_CLK1              |            10.0 |
| clk_fpga_1                    | design_1_i/processing_system7_0/inst/FCLK_CLK_unbuffered[1] |            10.0 |
| clk_out1_design_1_clk_wiz_0_0 | design_1_i/clk_wiz_0/inst/clk_out1_design_1_clk_wiz_0_0     |            40.0 |
| clkfbout_design_1_clk_wiz_0_0 | design_1_i/clk_wiz_0/inst/clkfbout_design_1_clk_wiz_0_0     |            10.0 |
+-------------------------------+-------------------------------------------------------------+-----------------+


3. Detailed Reports
-------------------

3.1 By Hierarchy
----------------

+--------------------------------------------------------------+-----------+
| Name                                                         | Power (W) |
+--------------------------------------------------------------+-----------+
| design_1_wrapper                                             |     1.696 |
|   design_1_i                                                 |     1.692 |
|     axi_interconnect_0                                       |     0.000 |
|       s00_couplers                                           |     0.000 |
|         auto_pc                                              |     0.000 |
|           inst                                               |     0.000 |
|     clk_wiz_0                                                |     0.117 |
|       inst                                                   |     0.117 |
|     full_chip_0                                              |     0.046 |
|       inst                                                   |     0.046 |
|         chipInterface                                        |     0.046 |
|           button_vgaSync                                     |    <0.001 |
|           chip                                               |     0.040 |
|             core                                             |     0.026 |
|               controlFlow                                    |     0.014 |
|                 branchPredictor                              |     0.014 |
|                   btb                                        |     0.011 |
|                   btb_preRegister                            |     0.002 |
|                 halt_register                                |    <0.001 |
|               controlStatusRegisterState                     |     0.004 |
|                 mcause_reg                                   |    <0.001 |
|                 mepc_reg                                     |    <0.001 |
|                 mscratch_reg                                 |    <0.001 |
|                 mstatus_reg                                  |    <0.001 |
|                 mtval_reg                                    |    <0.001 |
|                 mtvec_reg                                    |    <0.001 |
|                 performanceCounters                          |     0.003 |
|                   backwardBranchPredictedCorrectly_counter   |    <0.001 |
|                   backwardBranchPredictedIncorrectly_counter |    <0.001 |
|                   backwardBranchRetired_counter              |    <0.001 |
|                   backwardJumpPredictedCorrectly_counter     |    <0.001 |
|                   backwardJumpPredictedIncorrectly_counter   |    <0.001 |
|                   backwardJumpRetired_counter                |    <0.001 |
|                   cycleCount_counter                         |    <0.001 |
|                   dataCacheHits_counter                      |    <0.001 |
|                   dataCacheMisses_counter                    |    <0.001 |
|                   dataVRAMHit_counter                        |    <0.001 |
|                   forwardBranchPredictedCorrectly_counter    |    <0.001 |
|                   forwardBranchPredictedIncorrectly_counter  |    <0.001 |
|                   forwardBranchRetired_counter               |    <0.001 |
|                   forwardJumpPredictedCorrectly_counter      |    <0.001 |
|                   forwardJumpPredictedIncorrectly_counter    |    <0.001 |
|                   forwardJumpRetired_counter                 |    <0.001 |
|                   instructionCacheHits_counter               |    <0.001 |
|                   instructionCacheMisses_counter             |    <0.001 |
|                   instructionsFetched_counter                |    <0.001 |
|                   instructionsRetired_counter                |    <0.001 |
|                   storeConditionalRejections_counter         |    <0.001 |
|                   storeConditionalSuccesses_counter          |    <0.001 |
|                 priviledgeLevel_register                     |    <0.001 |
|                 satp_reg                                     |    <0.001 |
|               decode_stage                                   |    <0.001 |
|                 decode_pipelineRegister                      |    <0.001 |
|               execute_stage                                  |     0.001 |
|                 alu                                          |    <0.001 |
|                 execute1_pipelineRegister                    |    <0.001 |
|                 execute_pipelineRegister                     |    <0.001 |
|               fetch_stage                                    |     0.004 |
|                 fetchExport_register                         |    <0.001 |
|                 fetchState_register                          |    <0.001 |
|                 fetch_pipelineRegister                       |     0.002 |
|                 pc_register                                  |    <0.001 |
|                 stall_register                               |    <0.001 |
|               memory_stage                                   |    <0.001 |
|                 memory1_pipelineRegister                     |    <0.001 |
|                 memory2_pipelineRegister                     |    <0.001 |
|                 reservation_register                         |    <0.001 |
|               registerFile                                   |     0.001 |
|                 registerFile                                 |     0.001 |
|               writeBack_stage                                |    <0.001 |
|                 nextPC_register                              |    <0.001 |
|             display                                          |     0.002 |
|               vga                                            |     0.002 |
|                 charmap                                      |     0.001 |
|                 datagen                                      |    <0.001 |
|                   col_counter                                |    <0.001 |
|                   row_counter                                |    <0.001 |
|             dram_w                                           |     0.002 |
|               address_reg                                    |    <0.001 |
|               index_counter                                  |    <0.001 |
|               readArray_reg                                  |    <0.001 |
|               write_array                                    |    <0.001 |
|             keyboardController                               |    <0.001 |
|               keyboardQueue                                  |    <0.001 |
|                 bram                                         |    <0.001 |
|                 consumerIndex_register                       |    <0.001 |
|                 producerIndex_register                       |    <0.001 |
|             memory                                           |     0.010 |
|               dataRequest_reg                                |    <0.001 |
|               memory                                         |     0.007 |
|                 cache                                        |     0.005 |
|                   block_bram                                 |     0.003 |
|                   clear_counter                              |    <0.001 |
|                   data_reg                                   |    <0.001 |
|                   instruction_reg                            |    <0.001 |
|                   tag_bram                                   |     0.002 |
|                 dataCacheResponse_reg                        |    <0.001 |
|                 dataControl                                  |    <0.001 |
|                   responseType_register                      |    <0.001 |
|                 dataRequest_reg                              |    <0.001 |
|                 dataTranslation_reg                          |    <0.001 |
|                 dramBlockOffset_counter                      |    <0.001 |
|                 dramControl                                  |    <0.001 |
|                 dramRequest_reg                              |    <0.001 |
|                 dramResponse_reg                             |    <0.001 |
|                 dramValid_counter                            |    <0.001 |
|                 instructionCacheResponse_reg                 |    <0.001 |
|                 instructionControl                           |    <0.001 |
|                   responseType_register                      |    <0.001 |
|                 instructionRequest_reg                       |    <0.001 |
|                 instructionTranslation_reg                   |    <0.001 |
|                 tlb                                          |    <0.001 |
|                   data_reg                                   |    <0.001 |
|                   instruction_reg                            |    <0.001 |
|               vram                                           |     0.003 |
|                 dataRequest_reg                              |    <0.001 |
|                 vram                                         |     0.003 |
|             timerController                                  |    <0.001 |
|               nextTick_register                              |    <0.001 |
|               tick_counter                                   |    <0.001 |
|               timer_counter                                  |    <0.001 |
|           clear_sync                                         |    <0.001 |
|           dramController                                     |     0.003 |
|             address_reg                                      |    <0.001 |
|             data_reg                                         |    <0.001 |
|             readError_reg                                    |    <0.001 |
|             readTrigger                                      |    <0.001 |
|             writeError_reg                                   |    <0.001 |
|             writeTrigger                                     |    <0.001 |
|           keyboard                                           |    <0.001 |
|             kbd                                              |    <0.001 |
|               keyb_mouse                                     |    <0.001 |
|                 IOBUF_k_clk                                  |    <0.001 |
|                 IOBUF_k_data                                 |    <0.001 |
|                 i_ps2_translation_table                      |    <0.001 |
|                 key1                                         |    <0.001 |
|     processing_system7_0                                     |     1.530 |
|       inst                                                   |     1.530 |
|     rst_ps7_0_100M                                           |    <0.001 |
|       U0                                                     |    <0.001 |
|         EXT_LPF                                              |    <0.001 |
|           ACTIVE_LOW_AUX.ACT_LO_AUX                          |    <0.001 |
|           ACTIVE_LOW_EXT.ACT_LO_EXT                          |    <0.001 |
|         SEQ                                                  |    <0.001 |
|           SEQ_COUNTER                                        |    <0.001 |
+--------------------------------------------------------------+-----------+


